<TICKER>,<PER>,<DATE>,<TIME>,<OPEN>,<HIGH>,<LOW>,<CLOSE>,<VOL>
SPFB.VTBR-3.19,1,20181220,100000,3702.0000000,3702.0000000,3677.0000000,3677.0000000,895
SPFB.VTBR-3.19,1,20181220,100100,3677.0000000,3681.0000000,3677.0000000,3680.0000000,316
SPFB.VTBR-3.19,1,20181220,100200,3680.0000000,3684.0000000,3678.0000000,3684.0000000,310
SPFB.VTBR-3.19,1,20181220,100300,3682.0000000,3685.0000000,3681.0000000,3685.0000000,488
SPFB.VTBR-3.19,1,20181220,100400,3684.0000000,3685.0000000,3682.0000000,3685.0000000,116
SPFB.VTBR-3.19,1,20181220,100500,3684.0000000,3686.0000000,3683.0000000,3685.0000000,155
SPFB.VTBR-3.19,1,20181220,100600,3685.0000000,3687.0000000,3683.0000000,3685.0000000,216
SPFB.VTBR-3.19,1,20181220,100700,3686.0000000,3692.0000000,3686.0000000,3689.0000000,343
SPFB.VTBR-3.19,1,20181220,100800,3687.0000000,3687.0000000,3685.0000000,3685.0000000,164
SPFB.VTBR-3.19,1,20181220,100900,3683.0000000,3687.0000000,3683.0000000,3684.0000000,83
SPFB.VTBR-3.19,1,20181220,101000,3686.0000000,3689.0000000,3686.0000000,3689.0000000,244
SPFB.VTBR-3.19,1,20181220,101100,3690.0000000,3690.0000000,3686.0000000,3688.0000000,123
SPFB.VTBR-3.19,1,20181220,101200,3687.0000000,3690.0000000,3687.0000000,3690.0000000,83
SPFB.VTBR-3.19,1,20181220,101300,3689.0000000,3691.0000000,3689.0000000,3689.0000000,50
SPFB.VTBR-3.19,1,20181220,101400,3689.0000000,3689.0000000,3687.0000000,3689.0000000,50
SPFB.VTBR-3.19,1,20181220,101500,3688.0000000,3688.0000000,3687.0000000,3688.0000000,24
SPFB.VTBR-3.19,1,20181220,101600,3686.0000000,3690.0000000,3686.0000000,3688.0000000,310
SPFB.VTBR-3.19,1,20181220,101700,3689.0000000,3690.0000000,3688.0000000,3688.0000000,116
SPFB.VTBR-3.19,1,20181220,101800,3689.0000000,3691.0000000,3688.0000000,3688.0000000,209
SPFB.VTBR-3.19,1,20181220,101900,3689.0000000,3692.0000000,3689.0000000,3692.0000000,46
SPFB.VTBR-3.19,1,20181220,102000,3693.0000000,3693.0000000,3692.0000000,3692.0000000,88
SPFB.VTBR-3.19,1,20181220,102100,3692.0000000,3693.0000000,3690.0000000,3692.0000000,312
SPFB.VTBR-3.19,1,20181220,102200,3691.0000000,3693.0000000,3691.0000000,3692.0000000,252
SPFB.VTBR-3.19,1,20181220,102300,3694.0000000,3694.0000000,3692.0000000,3692.0000000,106
SPFB.VTBR-3.19,1,20181220,102400,3695.0000000,3699.0000000,3695.0000000,3696.0000000,246
SPFB.VTBR-3.19,1,20181220,102500,3695.0000000,3697.0000000,3695.0000000,3695.0000000,141
SPFB.VTBR-3.19,1,20181220,102600,3697.0000000,3699.0000000,3693.0000000,3693.0000000,1273
SPFB.VTBR-3.19,1,20181220,102700,3693.0000000,3695.0000000,3693.0000000,3694.0000000,390
SPFB.VTBR-3.19,1,20181220,102800,3693.0000000,3693.0000000,3689.0000000,3689.0000000,461
SPFB.VTBR-3.19,1,20181220,102900,3688.0000000,3688.0000000,3685.0000000,3685.0000000,422
SPFB.VTBR-3.19,1,20181220,103000,3684.0000000,3685.0000000,3682.0000000,3684.0000000,282
SPFB.VTBR-3.19,1,20181220,103100,3683.0000000,3684.0000000,3682.0000000,3683.0000000,474
SPFB.VTBR-3.19,1,20181220,103200,3683.0000000,3685.0000000,3683.0000000,3684.0000000,160
SPFB.VTBR-3.19,1,20181220,103300,3683.0000000,3684.0000000,3683.0000000,3684.0000000,84
SPFB.VTBR-3.19,1,20181220,103400,3685.0000000,3685.0000000,3678.0000000,3679.0000000,839
SPFB.VTBR-3.19,1,20181220,103500,3680.0000000,3684.0000000,3679.0000000,3681.0000000,515
SPFB.VTBR-3.19,1,20181220,103600,3681.0000000,3685.0000000,3680.0000000,3680.0000000,331
SPFB.VTBR-3.19,1,20181220,103700,3681.0000000,3684.0000000,3678.0000000,3681.0000000,314
SPFB.VTBR-3.19,1,20181220,103800,3682.0000000,3683.0000000,3681.0000000,3682.0000000,158
SPFB.VTBR-3.19,1,20181220,103900,3682.0000000,3683.0000000,3680.0000000,3681.0000000,393
SPFB.VTBR-3.19,1,20181220,104000,3682.0000000,3684.0000000,3682.0000000,3684.0000000,316
SPFB.VTBR-3.19,1,20181220,104100,3684.0000000,3689.0000000,3684.0000000,3686.0000000,691
SPFB.VTBR-3.19,1,20181220,104200,3685.0000000,3687.0000000,3683.0000000,3685.0000000,433
SPFB.VTBR-3.19,1,20181220,104300,3683.0000000,3686.0000000,3683.0000000,3684.0000000,118
SPFB.VTBR-3.19,1,20181220,104400,3684.0000000,3686.0000000,3684.0000000,3686.0000000,91
SPFB.VTBR-3.19,1,20181220,104500,3685.0000000,3685.0000000,3685.0000000,3685.0000000,26
SPFB.VTBR-3.19,1,20181220,104600,3685.0000000,3686.0000000,3684.0000000,3686.0000000,115
SPFB.VTBR-3.19,1,20181220,104700,3687.0000000,3687.0000000,3687.0000000,3687.0000000,30
SPFB.VTBR-3.19,1,20181220,104800,3685.0000000,3685.0000000,3685.0000000,3685.0000000,1
SPFB.VTBR-3.19,1,20181220,104900,3684.0000000,3685.0000000,3684.0000000,3685.0000000,6
SPFB.VTBR-3.19,1,20181220,105000,3685.0000000,3685.0000000,3685.0000000,3685.0000000,2
SPFB.VTBR-3.19,1,20181220,105100,3685.0000000,3685.0000000,3682.0000000,3682.0000000,559
SPFB.VTBR-3.19,1,20181220,105200,3682.0000000,3686.0000000,3682.0000000,3685.0000000,643
SPFB.VTBR-3.19,1,20181220,105300,3685.0000000,3690.0000000,3685.0000000,3687.0000000,477
SPFB.VTBR-3.19,1,20181220,105400,3686.0000000,3686.0000000,3685.0000000,3685.0000000,204
SPFB.VTBR-3.19,1,20181220,105500,3684.0000000,3684.0000000,3683.0000000,3684.0000000,159
SPFB.VTBR-3.19,1,20181220,105600,3683.0000000,3685.0000000,3683.0000000,3685.0000000,30
SPFB.VTBR-3.19,1,20181220,105700,3685.0000000,3685.0000000,3683.0000000,3683.0000000,175
SPFB.VTBR-3.19,1,20181220,105800,3683.0000000,3685.0000000,3683.0000000,3683.0000000,122
SPFB.VTBR-3.19,1,20181220,105900,3685.0000000,3685.0000000,3682.0000000,3684.0000000,153
SPFB.VTBR-3.19,1,20181220,110000,3684.0000000,3684.0000000,3682.0000000,3683.0000000,19
SPFB.VTBR-3.19,1,20181220,110100,3681.0000000,3683.0000000,3681.0000000,3683.0000000,129
SPFB.VTBR-3.19,1,20181220,110200,3682.0000000,3683.0000000,3682.0000000,3683.0000000,58
SPFB.VTBR-3.19,1,20181220,110300,3683.0000000,3683.0000000,3682.0000000,3682.0000000,26
SPFB.VTBR-3.19,1,20181220,110400,3682.0000000,3682.0000000,3681.0000000,3682.0000000,77
SPFB.VTBR-3.19,1,20181220,110500,3681.0000000,3683.0000000,3681.0000000,3683.0000000,40
SPFB.VTBR-3.19,1,20181220,110600,3683.0000000,3683.0000000,3683.0000000,3683.0000000,75
SPFB.VTBR-3.19,1,20181220,110700,3683.0000000,3686.0000000,3683.0000000,3686.0000000,141
SPFB.VTBR-3.19,1,20181220,110800,3687.0000000,3687.0000000,3685.0000000,3687.0000000,143
SPFB.VTBR-3.19,1,20181220,110900,3687.0000000,3687.0000000,3686.0000000,3686.0000000,171
SPFB.VTBR-3.19,1,20181220,111000,3687.0000000,3687.0000000,3684.0000000,3685.0000000,675
SPFB.VTBR-3.19,1,20181220,111100,3685.0000000,3686.0000000,3684.0000000,3686.0000000,157
SPFB.VTBR-3.19,1,20181220,111200,3687.0000000,3688.0000000,3686.0000000,3688.0000000,209
SPFB.VTBR-3.19,1,20181220,111300,3688.0000000,3689.0000000,3688.0000000,3689.0000000,43
SPFB.VTBR-3.19,1,20181220,111400,3688.0000000,3689.0000000,3687.0000000,3687.0000000,119
SPFB.VTBR-3.19,1,20181220,111500,3688.0000000,3689.0000000,3688.0000000,3688.0000000,121
SPFB.VTBR-3.19,1,20181220,111600,3688.0000000,3689.0000000,3688.0000000,3688.0000000,104
SPFB.VTBR-3.19,1,20181220,111700,3686.0000000,3688.0000000,3685.0000000,3685.0000000,112
SPFB.VTBR-3.19,1,20181220,111800,3686.0000000,3687.0000000,3685.0000000,3685.0000000,148
SPFB.VTBR-3.19,1,20181220,111900,3686.0000000,3687.0000000,3685.0000000,3687.0000000,71
SPFB.VTBR-3.19,1,20181220,112000,3684.0000000,3685.0000000,3684.0000000,3684.0000000,28
SPFB.VTBR-3.19,1,20181220,112100,3685.0000000,3685.0000000,3683.0000000,3684.0000000,208
SPFB.VTBR-3.19,1,20181220,112200,3684.0000000,3684.0000000,3683.0000000,3683.0000000,24
SPFB.VTBR-3.19,1,20181220,112300,3683.0000000,3683.0000000,3682.0000000,3682.0000000,107
SPFB.VTBR-3.19,1,20181220,112400,3682.0000000,3682.0000000,3679.0000000,3679.0000000,510
SPFB.VTBR-3.19,1,20181220,112500,3679.0000000,3680.0000000,3678.0000000,3678.0000000,141
SPFB.VTBR-3.19,1,20181220,112600,3678.0000000,3678.0000000,3671.0000000,3673.0000000,913
SPFB.VTBR-3.19,1,20181220,112700,3672.0000000,3674.0000000,3667.0000000,3673.0000000,1781
SPFB.VTBR-3.19,1,20181220,112800,3672.0000000,3672.0000000,3667.0000000,3669.0000000,316
SPFB.VTBR-3.19,1,20181220,112900,3669.0000000,3670.0000000,3667.0000000,3668.0000000,87
SPFB.VTBR-3.19,1,20181220,113000,3668.0000000,3671.0000000,3668.0000000,3671.0000000,146
SPFB.VTBR-3.19,1,20181220,113100,3671.0000000,3672.0000000,3668.0000000,3670.0000000,247
SPFB.VTBR-3.19,1,20181220,113200,3670.0000000,3670.0000000,3669.0000000,3670.0000000,110
SPFB.VTBR-3.19,1,20181220,113300,3670.0000000,3670.0000000,3668.0000000,3669.0000000,16
SPFB.VTBR-3.19,1,20181220,113400,3668.0000000,3669.0000000,3667.0000000,3667.0000000,144
SPFB.VTBR-3.19,1,20181220,113500,3668.0000000,3668.0000000,3667.0000000,3668.0000000,34
SPFB.VTBR-3.19,1,20181220,113600,3667.0000000,3668.0000000,3665.0000000,3665.0000000,639
SPFB.VTBR-3.19,1,20181220,113700,3666.0000000,3666.0000000,3665.0000000,3665.0000000,230
SPFB.VTBR-3.19,1,20181220,113800,3664.0000000,3666.0000000,3663.0000000,3664.0000000,278
SPFB.VTBR-3.19,1,20181220,113900,3666.0000000,3667.0000000,3664.0000000,3667.0000000,534
SPFB.VTBR-3.19,1,20181220,114000,3667.0000000,3667.0000000,3665.0000000,3667.0000000,181
SPFB.VTBR-3.19,1,20181220,114100,3667.0000000,3668.0000000,3667.0000000,3667.0000000,109
SPFB.VTBR-3.19,1,20181220,114200,3667.0000000,3668.0000000,3667.0000000,3668.0000000,47
SPFB.VTBR-3.19,1,20181220,114300,3668.0000000,3668.0000000,3667.0000000,3668.0000000,56
SPFB.VTBR-3.19,1,20181220,114400,3668.0000000,3670.0000000,3665.0000000,3666.0000000,506
SPFB.VTBR-3.19,1,20181220,114500,3665.0000000,3666.0000000,3664.0000000,3664.0000000,67
SPFB.VTBR-3.19,1,20181220,114600,3664.0000000,3664.0000000,3660.0000000,3661.0000000,547
SPFB.VTBR-3.19,1,20181220,114700,3663.0000000,3663.0000000,3662.0000000,3662.0000000,357
SPFB.VTBR-3.19,1,20181220,114800,3662.0000000,3663.0000000,3660.0000000,3660.0000000,332
SPFB.VTBR-3.19,1,20181220,114900,3661.0000000,3662.0000000,3658.0000000,3660.0000000,1484
SPFB.VTBR-3.19,1,20181220,115000,3660.0000000,3663.0000000,3660.0000000,3660.0000000,305
SPFB.VTBR-3.19,1,20181220,115100,3660.0000000,3661.0000000,3659.0000000,3661.0000000,436
SPFB.VTBR-3.19,1,20181220,115200,3661.0000000,3663.0000000,3661.0000000,3663.0000000,80
SPFB.VTBR-3.19,1,20181220,115300,3663.0000000,3663.0000000,3661.0000000,3661.0000000,861
SPFB.VTBR-3.19,1,20181220,115400,3660.0000000,3661.0000000,3659.0000000,3659.0000000,368
SPFB.VTBR-3.19,1,20181220,115500,3659.0000000,3662.0000000,3659.0000000,3661.0000000,297
SPFB.VTBR-3.19,1,20181220,115600,3661.0000000,3662.0000000,3657.0000000,3658.0000000,918
SPFB.VTBR-3.19,1,20181220,115700,3658.0000000,3658.0000000,3651.0000000,3657.0000000,424
SPFB.VTBR-3.19,1,20181220,115800,3657.0000000,3658.0000000,3655.0000000,3657.0000000,156
SPFB.VTBR-3.19,1,20181220,115900,3659.0000000,3659.0000000,3658.0000000,3659.0000000,96
SPFB.VTBR-3.19,1,20181220,120000,3659.0000000,3659.0000000,3652.0000000,3656.0000000,350
SPFB.VTBR-3.19,1,20181220,120100,3655.0000000,3658.0000000,3655.0000000,3657.0000000,250
SPFB.VTBR-3.19,1,20181220,120200,3658.0000000,3658.0000000,3656.0000000,3657.0000000,102
SPFB.VTBR-3.19,1,20181220,120300,3656.0000000,3657.0000000,3655.0000000,3655.0000000,35
SPFB.VTBR-3.19,1,20181220,120400,3653.0000000,3656.0000000,3653.0000000,3656.0000000,48
SPFB.VTBR-3.19,1,20181220,120500,3657.0000000,3659.0000000,3656.0000000,3657.0000000,114
SPFB.VTBR-3.19,1,20181220,120600,3656.0000000,3659.0000000,3656.0000000,3659.0000000,103
SPFB.VTBR-3.19,1,20181220,120700,3658.0000000,3658.0000000,3656.0000000,3656.0000000,115
SPFB.VTBR-3.19,1,20181220,120800,3657.0000000,3657.0000000,3649.0000000,3649.0000000,955
SPFB.VTBR-3.19,1,20181220,120900,3649.0000000,3653.0000000,3649.0000000,3649.0000000,757
SPFB.VTBR-3.19,1,20181220,121000,3649.0000000,3649.0000000,3645.0000000,3645.0000000,753
SPFB.VTBR-3.19,1,20181220,121100,3646.0000000,3648.0000000,3646.0000000,3646.0000000,201
SPFB.VTBR-3.19,1,20181220,121200,3646.0000000,3649.0000000,3646.0000000,3649.0000000,231
SPFB.VTBR-3.19,1,20181220,121300,3649.0000000,3654.0000000,3649.0000000,3654.0000000,154
SPFB.VTBR-3.19,1,20181220,121400,3654.0000000,3656.0000000,3653.0000000,3656.0000000,44
SPFB.VTBR-3.19,1,20181220,121500,3657.0000000,3658.0000000,3656.0000000,3658.0000000,75
SPFB.VTBR-3.19,1,20181220,121600,3657.0000000,3657.0000000,3656.0000000,3657.0000000,31
SPFB.VTBR-3.19,1,20181220,121700,3657.0000000,3658.0000000,3656.0000000,3656.0000000,191
SPFB.VTBR-3.19,1,20181220,121800,3655.0000000,3655.0000000,3650.0000000,3652.0000000,146
SPFB.VTBR-3.19,1,20181220,121900,3652.0000000,3654.0000000,3652.0000000,3654.0000000,9
SPFB.VTBR-3.19,1,20181220,122000,3652.0000000,3655.0000000,3652.0000000,3655.0000000,37
SPFB.VTBR-3.19,1,20181220,122100,3654.0000000,3657.0000000,3654.0000000,3655.0000000,120
SPFB.VTBR-3.19,1,20181220,122200,3655.0000000,3657.0000000,3655.0000000,3656.0000000,240
SPFB.VTBR-3.19,1,20181220,122300,3656.0000000,3657.0000000,3655.0000000,3656.0000000,85
SPFB.VTBR-3.19,1,20181220,122400,3656.0000000,3656.0000000,3655.0000000,3655.0000000,211
SPFB.VTBR-3.19,1,20181220,122500,3656.0000000,3656.0000000,3654.0000000,3654.0000000,5
SPFB.VTBR-3.19,1,20181220,122600,3654.0000000,3655.0000000,3654.0000000,3654.0000000,7
SPFB.VTBR-3.19,1,20181220,122700,3655.0000000,3656.0000000,3654.0000000,3654.0000000,64
SPFB.VTBR-3.19,1,20181220,122800,3655.0000000,3657.0000000,3654.0000000,3655.0000000,232
SPFB.VTBR-3.19,1,20181220,122900,3655.0000000,3663.0000000,3654.0000000,3657.0000000,1838
SPFB.VTBR-3.19,1,20181220,123000,3657.0000000,3659.0000000,3656.0000000,3658.0000000,503
SPFB.VTBR-3.19,1,20181220,123100,3658.0000000,3659.0000000,3656.0000000,3657.0000000,232
SPFB.VTBR-3.19,1,20181220,123200,3657.0000000,3659.0000000,3656.0000000,3657.0000000,171
SPFB.VTBR-3.19,1,20181220,123300,3657.0000000,3658.0000000,3656.0000000,3657.0000000,51
SPFB.VTBR-3.19,1,20181220,123400,3657.0000000,3657.0000000,3657.0000000,3657.0000000,16
SPFB.VTBR-3.19,1,20181220,123500,3657.0000000,3658.0000000,3656.0000000,3656.0000000,58
SPFB.VTBR-3.19,1,20181220,123600,3657.0000000,3658.0000000,3656.0000000,3658.0000000,55
SPFB.VTBR-3.19,1,20181220,123700,3657.0000000,3657.0000000,3656.0000000,3657.0000000,53
SPFB.VTBR-3.19,1,20181220,123800,3657.0000000,3662.0000000,3656.0000000,3658.0000000,433
SPFB.VTBR-3.19,1,20181220,123900,3657.0000000,3660.0000000,3657.0000000,3659.0000000,187
SPFB.VTBR-3.19,1,20181220,124000,3658.0000000,3658.0000000,3654.0000000,3654.0000000,1407
SPFB.VTBR-3.19,1,20181220,124100,3655.0000000,3656.0000000,3653.0000000,3655.0000000,448
SPFB.VTBR-3.19,1,20181220,124200,3655.0000000,3658.0000000,3655.0000000,3658.0000000,287
SPFB.VTBR-3.19,1,20181220,124300,3657.0000000,3659.0000000,3657.0000000,3659.0000000,268
SPFB.VTBR-3.19,1,20181220,124400,3659.0000000,3659.0000000,3658.0000000,3659.0000000,205
SPFB.VTBR-3.19,1,20181220,124500,3658.0000000,3659.0000000,3658.0000000,3658.0000000,312
SPFB.VTBR-3.19,1,20181220,124600,3658.0000000,3658.0000000,3657.0000000,3658.0000000,216
SPFB.VTBR-3.19,1,20181220,124700,3658.0000000,3659.0000000,3658.0000000,3658.0000000,272
SPFB.VTBR-3.19,1,20181220,124800,3658.0000000,3658.0000000,3658.0000000,3658.0000000,12
SPFB.VTBR-3.19,1,20181220,124900,3658.0000000,3659.0000000,3658.0000000,3658.0000000,146
SPFB.VTBR-3.19,1,20181220,125000,3657.0000000,3657.0000000,3657.0000000,3657.0000000,90
SPFB.VTBR-3.19,1,20181220,125100,3657.0000000,3658.0000000,3657.0000000,3658.0000000,56
SPFB.VTBR-3.19,1,20181220,125200,3657.0000000,3658.0000000,3657.0000000,3658.0000000,8
SPFB.VTBR-3.19,1,20181220,125300,3657.0000000,3659.0000000,3657.0000000,3658.0000000,203
SPFB.VTBR-3.19,1,20181220,125400,3657.0000000,3658.0000000,3657.0000000,3658.0000000,33
SPFB.VTBR-3.19,1,20181220,125500,3658.0000000,3658.0000000,3657.0000000,3657.0000000,110
SPFB.VTBR-3.19,1,20181220,125600,3658.0000000,3660.0000000,3656.0000000,3658.0000000,919
SPFB.VTBR-3.19,1,20181220,125700,3659.0000000,3660.0000000,3657.0000000,3659.0000000,719
SPFB.VTBR-3.19,1,20181220,125800,3659.0000000,3660.0000000,3657.0000000,3660.0000000,256
SPFB.VTBR-3.19,1,20181220,125900,3659.0000000,3660.0000000,3658.0000000,3660.0000000,106
SPFB.VTBR-3.19,1,20181220,130000,3660.0000000,3661.0000000,3658.0000000,3660.0000000,307
SPFB.VTBR-3.19,1,20181220,130100,3660.0000000,3660.0000000,3660.0000000,3660.0000000,147
SPFB.VTBR-3.19,1,20181220,130200,3660.0000000,3662.0000000,3660.0000000,3661.0000000,98
SPFB.VTBR-3.19,1,20181220,130300,3661.0000000,3662.0000000,3660.0000000,3661.0000000,129
SPFB.VTBR-3.19,1,20181220,130400,3662.0000000,3663.0000000,3661.0000000,3662.0000000,139
SPFB.VTBR-3.19,1,20181220,130500,3660.0000000,3661.0000000,3660.0000000,3661.0000000,58
SPFB.VTBR-3.19,1,20181220,130600,3661.0000000,3661.0000000,3661.0000000,3661.0000000,9
SPFB.VTBR-3.19,1,20181220,130700,3660.0000000,3661.0000000,3660.0000000,3660.0000000,51
SPFB.VTBR-3.19,1,20181220,130800,3660.0000000,3663.0000000,3659.0000000,3661.0000000,223
SPFB.VTBR-3.19,1,20181220,130900,3659.0000000,3659.0000000,3659.0000000,3659.0000000,34
SPFB.VTBR-3.19,1,20181220,131000,3660.0000000,3660.0000000,3659.0000000,3659.0000000,62
SPFB.VTBR-3.19,1,20181220,131400,3660.0000000,3660.0000000,3659.0000000,3660.0000000,78
SPFB.VTBR-3.19,1,20181220,131500,3660.0000000,3660.0000000,3660.0000000,3660.0000000,76
SPFB.VTBR-3.19,1,20181220,131600,3660.0000000,3662.0000000,3660.0000000,3662.0000000,61
SPFB.VTBR-3.19,1,20181220,131700,3660.0000000,3661.0000000,3660.0000000,3660.0000000,296
SPFB.VTBR-3.19,1,20181220,131800,3660.0000000,3660.0000000,3660.0000000,3660.0000000,12
SPFB.VTBR-3.19,1,20181220,131900,3660.0000000,3660.0000000,3659.0000000,3660.0000000,13
SPFB.VTBR-3.19,1,20181220,132000,3659.0000000,3660.0000000,3659.0000000,3659.0000000,66
SPFB.VTBR-3.19,1,20181220,132100,3660.0000000,3661.0000000,3660.0000000,3660.0000000,84
SPFB.VTBR-3.19,1,20181220,132200,3660.0000000,3660.0000000,3659.0000000,3659.0000000,45
SPFB.VTBR-3.19,1,20181220,132300,3659.0000000,3660.0000000,3658.0000000,3660.0000000,192
SPFB.VTBR-3.19,1,20181220,132400,3659.0000000,3659.0000000,3658.0000000,3658.0000000,49
SPFB.VTBR-3.19,1,20181220,132500,3658.0000000,3659.0000000,3658.0000000,3658.0000000,600
SPFB.VTBR-3.19,1,20181220,132600,3657.0000000,3659.0000000,3657.0000000,3659.0000000,55
SPFB.VTBR-3.19,1,20181220,132700,3657.0000000,3661.0000000,3655.0000000,3658.0000000,1160
SPFB.VTBR-3.19,1,20181220,132800,3659.0000000,3660.0000000,3658.0000000,3658.0000000,293
SPFB.VTBR-3.19,1,20181220,132900,3659.0000000,3659.0000000,3659.0000000,3659.0000000,3
SPFB.VTBR-3.19,1,20181220,133000,3659.0000000,3660.0000000,3659.0000000,3660.0000000,152
SPFB.VTBR-3.19,1,20181220,133100,3660.0000000,3660.0000000,3660.0000000,3660.0000000,85
SPFB.VTBR-3.19,1,20181220,133200,3660.0000000,3660.0000000,3657.0000000,3657.0000000,193
SPFB.VTBR-3.19,1,20181220,133300,3658.0000000,3658.0000000,3658.0000000,3658.0000000,47
SPFB.VTBR-3.19,1,20181220,133400,3658.0000000,3658.0000000,3657.0000000,3658.0000000,113
SPFB.VTBR-3.19,1,20181220,133500,3659.0000000,3659.0000000,3658.0000000,3658.0000000,169
SPFB.VTBR-3.19,1,20181220,133600,3658.0000000,3659.0000000,3658.0000000,3658.0000000,139
SPFB.VTBR-3.19,1,20181220,133700,3658.0000000,3659.0000000,3658.0000000,3658.0000000,37
SPFB.VTBR-3.19,1,20181220,133800,3657.0000000,3658.0000000,3657.0000000,3658.0000000,232
SPFB.VTBR-3.19,1,20181220,133900,3658.0000000,3658.0000000,3657.0000000,3658.0000000,70
SPFB.VTBR-3.19,1,20181220,134000,3658.0000000,3658.0000000,3658.0000000,3658.0000000,212
SPFB.VTBR-3.19,1,20181220,134200,3657.0000000,3659.0000000,3657.0000000,3659.0000000,23
SPFB.VTBR-3.19,1,20181220,134300,3659.0000000,3659.0000000,3659.0000000,3659.0000000,4
SPFB.VTBR-3.19,1,20181220,134400,3659.0000000,3659.0000000,3657.0000000,3658.0000000,44
SPFB.VTBR-3.19,1,20181220,134500,3659.0000000,3660.0000000,3657.0000000,3658.0000000,305
SPFB.VTBR-3.19,1,20181220,134600,3658.0000000,3658.0000000,3658.0000000,3658.0000000,41
SPFB.VTBR-3.19,1,20181220,134700,3657.0000000,3657.0000000,3656.0000000,3656.0000000,242
SPFB.VTBR-3.19,1,20181220,134800,3657.0000000,3657.0000000,3657.0000000,3657.0000000,30
SPFB.VTBR-3.19,1,20181220,134900,3657.0000000,3659.0000000,3656.0000000,3659.0000000,139
SPFB.VTBR-3.19,1,20181220,135000,3658.0000000,3658.0000000,3655.0000000,3657.0000000,271
SPFB.VTBR-3.19,1,20181220,135100,3656.0000000,3656.0000000,3654.0000000,3656.0000000,177
SPFB.VTBR-3.19,1,20181220,135200,3654.0000000,3654.0000000,3653.0000000,3653.0000000,23
SPFB.VTBR-3.19,1,20181220,135300,3654.0000000,3654.0000000,3653.0000000,3654.0000000,104
SPFB.VTBR-3.19,1,20181220,135400,3654.0000000,3655.0000000,3653.0000000,3654.0000000,114
SPFB.VTBR-3.19,1,20181220,135500,3654.0000000,3656.0000000,3654.0000000,3655.0000000,212
SPFB.VTBR-3.19,1,20181220,135600,3655.0000000,3656.0000000,3653.0000000,3653.0000000,230
SPFB.VTBR-3.19,1,20181220,135700,3655.0000000,3655.0000000,3655.0000000,3655.0000000,113
SPFB.VTBR-3.19,1,20181220,135800,3655.0000000,3655.0000000,3655.0000000,3655.0000000,11
SPFB.VTBR-3.19,1,20181220,135900,3656.0000000,3656.0000000,3656.0000000,3656.0000000,7
SPFB.VTBR-3.19,1,20181220,141000,3656.0000000,3661.0000000,3656.0000000,3657.0000000,139
SPFB.VTBR-3.19,1,20181220,141100,3658.0000000,3658.0000000,3657.0000000,3657.0000000,26
SPFB.VTBR-3.19,1,20181220,141200,3657.0000000,3658.0000000,3657.0000000,3658.0000000,70
SPFB.VTBR-3.19,1,20181220,141300,3658.0000000,3659.0000000,3658.0000000,3659.0000000,101
SPFB.VTBR-3.19,1,20181220,141400,3658.0000000,3658.0000000,3657.0000000,3657.0000000,177
SPFB.VTBR-3.19,1,20181220,141500,3657.0000000,3659.0000000,3657.0000000,3659.0000000,38
SPFB.VTBR-3.19,1,20181220,141600,3657.0000000,3660.0000000,3657.0000000,3659.0000000,254
SPFB.VTBR-3.19,1,20181220,141700,3659.0000000,3661.0000000,3657.0000000,3661.0000000,191
SPFB.VTBR-3.19,1,20181220,141800,3660.0000000,3662.0000000,3660.0000000,3661.0000000,227
SPFB.VTBR-3.19,1,20181220,141900,3661.0000000,3665.0000000,3661.0000000,3664.0000000,459
SPFB.VTBR-3.19,1,20181220,142000,3664.0000000,3664.0000000,3663.0000000,3664.0000000,13
SPFB.VTBR-3.19,1,20181220,142100,3664.0000000,3665.0000000,3663.0000000,3664.0000000,57
SPFB.VTBR-3.19,1,20181220,142200,3664.0000000,3664.0000000,3662.0000000,3664.0000000,225
SPFB.VTBR-3.19,1,20181220,142300,3662.0000000,3662.0000000,3660.0000000,3662.0000000,111
SPFB.VTBR-3.19,1,20181220,142400,3662.0000000,3662.0000000,3660.0000000,3660.0000000,15
SPFB.VTBR-3.19,1,20181220,142500,3661.0000000,3662.0000000,3660.0000000,3662.0000000,43
SPFB.VTBR-3.19,1,20181220,142600,3661.0000000,3662.0000000,3657.0000000,3657.0000000,666
SPFB.VTBR-3.19,1,20181220,142700,3660.0000000,3661.0000000,3659.0000000,3660.0000000,82
SPFB.VTBR-3.19,1,20181220,142800,3659.0000000,3660.0000000,3659.0000000,3660.0000000,44
SPFB.VTBR-3.19,1,20181220,142900,3659.0000000,3659.0000000,3658.0000000,3658.0000000,126
SPFB.VTBR-3.19,1,20181220,143000,3659.0000000,3659.0000000,3658.0000000,3659.0000000,33
SPFB.VTBR-3.19,1,20181220,143100,3658.0000000,3658.0000000,3657.0000000,3658.0000000,156
SPFB.VTBR-3.19,1,20181220,143200,3658.0000000,3660.0000000,3658.0000000,3659.0000000,189
SPFB.VTBR-3.19,1,20181220,143300,3659.0000000,3659.0000000,3658.0000000,3658.0000000,72
SPFB.VTBR-3.19,1,20181220,143400,3659.0000000,3663.0000000,3657.0000000,3659.0000000,617
SPFB.VTBR-3.19,1,20181220,143500,3658.0000000,3663.0000000,3657.0000000,3658.0000000,375
SPFB.VTBR-3.19,1,20181220,143600,3659.0000000,3659.0000000,3659.0000000,3659.0000000,9
SPFB.VTBR-3.19,1,20181220,143700,3659.0000000,3660.0000000,3659.0000000,3659.0000000,44
SPFB.VTBR-3.19,1,20181220,143800,3659.0000000,3661.0000000,3659.0000000,3661.0000000,538
SPFB.VTBR-3.19,1,20181220,143900,3660.0000000,3661.0000000,3660.0000000,3660.0000000,330
SPFB.VTBR-3.19,1,20181220,144000,3659.0000000,3660.0000000,3658.0000000,3659.0000000,105
SPFB.VTBR-3.19,1,20181220,144100,3658.0000000,3660.0000000,3658.0000000,3660.0000000,12
SPFB.VTBR-3.19,1,20181220,144200,3658.0000000,3659.0000000,3657.0000000,3659.0000000,90
SPFB.VTBR-3.19,1,20181220,144300,3659.0000000,3660.0000000,3659.0000000,3660.0000000,16
SPFB.VTBR-3.19,1,20181220,144400,3659.0000000,3659.0000000,3659.0000000,3659.0000000,5
SPFB.VTBR-3.19,1,20181220,144500,3659.0000000,3659.0000000,3659.0000000,3659.0000000,8
SPFB.VTBR-3.19,1,20181220,144600,3659.0000000,3660.0000000,3659.0000000,3660.0000000,13
SPFB.VTBR-3.19,1,20181220,144700,3660.0000000,3660.0000000,3660.0000000,3660.0000000,32
SPFB.VTBR-3.19,1,20181220,144800,3660.0000000,3660.0000000,3659.0000000,3660.0000000,77
SPFB.VTBR-3.19,1,20181220,144900,3659.0000000,3660.0000000,3658.0000000,3659.0000000,24
SPFB.VTBR-3.19,1,20181220,145000,3659.0000000,3659.0000000,3659.0000000,3659.0000000,7
SPFB.VTBR-3.19,1,20181220,145100,3658.0000000,3658.0000000,3658.0000000,3658.0000000,20
SPFB.VTBR-3.19,1,20181220,145200,3658.0000000,3658.0000000,3658.0000000,3658.0000000,3
SPFB.VTBR-3.19,1,20181220,145300,3659.0000000,3659.0000000,3659.0000000,3659.0000000,12
SPFB.VTBR-3.19,1,20181220,145400,3660.0000000,3661.0000000,3660.0000000,3661.0000000,50
SPFB.VTBR-3.19,1,20181220,145500,3659.0000000,3659.0000000,3659.0000000,3659.0000000,19
SPFB.VTBR-3.19,1,20181220,145600,3659.0000000,3659.0000000,3659.0000000,3659.0000000,10
SPFB.VTBR-3.19,1,20181220,145700,3659.0000000,3659.0000000,3659.0000000,3659.0000000,8
SPFB.VTBR-3.19,1,20181220,145800,3659.0000000,3659.0000000,3659.0000000,3659.0000000,25
SPFB.VTBR-3.19,1,20181220,145900,3659.0000000,3660.0000000,3658.0000000,3660.0000000,213
SPFB.VTBR-3.19,1,20181220,150000,3660.0000000,3663.0000000,3660.0000000,3661.0000000,141
SPFB.VTBR-3.19,1,20181220,150100,3661.0000000,3661.0000000,3660.0000000,3660.0000000,503
SPFB.VTBR-3.19,1,20181220,150200,3660.0000000,3662.0000000,3660.0000000,3661.0000000,476
SPFB.VTBR-3.19,1,20181220,150400,3661.0000000,3663.0000000,3661.0000000,3661.0000000,110
SPFB.VTBR-3.19,1,20181220,150500,3661.0000000,3662.0000000,3661.0000000,3661.0000000,5
SPFB.VTBR-3.19,1,20181220,150600,3661.0000000,3661.0000000,3661.0000000,3661.0000000,13
SPFB.VTBR-3.19,1,20181220,150700,3661.0000000,3662.0000000,3661.0000000,3662.0000000,47
SPFB.VTBR-3.19,1,20181220,150800,3663.0000000,3663.0000000,3663.0000000,3663.0000000,27
SPFB.VTBR-3.19,1,20181220,150900,3663.0000000,3663.0000000,3662.0000000,3663.0000000,77
SPFB.VTBR-3.19,1,20181220,151000,3663.0000000,3667.0000000,3663.0000000,3663.0000000,273
SPFB.VTBR-3.19,1,20181220,151200,3664.0000000,3667.0000000,3664.0000000,3666.0000000,168
SPFB.VTBR-3.19,1,20181220,151300,3667.0000000,3668.0000000,3665.0000000,3667.0000000,88
SPFB.VTBR-3.19,1,20181220,151400,3667.0000000,3668.0000000,3667.0000000,3668.0000000,125
SPFB.VTBR-3.19,1,20181220,151500,3668.0000000,3670.0000000,3667.0000000,3670.0000000,578
SPFB.VTBR-3.19,1,20181220,151600,3671.0000000,3671.0000000,3669.0000000,3669.0000000,60
SPFB.VTBR-3.19,1,20181220,151700,3670.0000000,3671.0000000,3669.0000000,3671.0000000,187
SPFB.VTBR-3.19,1,20181220,151800,3672.0000000,3672.0000000,3669.0000000,3669.0000000,787
SPFB.VTBR-3.19,1,20181220,151900,3669.0000000,3669.0000000,3669.0000000,3669.0000000,10
SPFB.VTBR-3.19,1,20181220,152000,3670.0000000,3670.0000000,3670.0000000,3670.0000000,104
SPFB.VTBR-3.19,1,20181220,152100,3670.0000000,3671.0000000,3669.0000000,3670.0000000,24
SPFB.VTBR-3.19,1,20181220,152200,3670.0000000,3671.0000000,3669.0000000,3671.0000000,164
SPFB.VTBR-3.19,1,20181220,152300,3670.0000000,3672.0000000,3670.0000000,3672.0000000,64
SPFB.VTBR-3.19,1,20181220,152400,3672.0000000,3672.0000000,3670.0000000,3671.0000000,298
SPFB.VTBR-3.19,1,20181220,152500,3672.0000000,3672.0000000,3665.0000000,3668.0000000,359
SPFB.VTBR-3.19,1,20181220,152600,3669.0000000,3669.0000000,3667.0000000,3667.0000000,30
SPFB.VTBR-3.19,1,20181220,152700,3667.0000000,3668.0000000,3665.0000000,3665.0000000,77
SPFB.VTBR-3.19,1,20181220,152800,3667.0000000,3667.0000000,3666.0000000,3666.0000000,222
SPFB.VTBR-3.19,1,20181220,152900,3666.0000000,3667.0000000,3665.0000000,3665.0000000,168
SPFB.VTBR-3.19,1,20181220,153000,3667.0000000,3668.0000000,3667.0000000,3667.0000000,113
SPFB.VTBR-3.19,1,20181220,153100,3668.0000000,3668.0000000,3667.0000000,3667.0000000,24
SPFB.VTBR-3.19,1,20181220,153200,3667.0000000,3667.0000000,3667.0000000,3667.0000000,5
SPFB.VTBR-3.19,1,20181220,153300,3668.0000000,3668.0000000,3667.0000000,3668.0000000,232
SPFB.VTBR-3.19,1,20181220,153400,3668.0000000,3669.0000000,3666.0000000,3666.0000000,181
SPFB.VTBR-3.19,1,20181220,153500,3667.0000000,3668.0000000,3666.0000000,3666.0000000,52
SPFB.VTBR-3.19,1,20181220,153600,3667.0000000,3668.0000000,3665.0000000,3665.0000000,176
SPFB.VTBR-3.19,1,20181220,153700,3665.0000000,3670.0000000,3665.0000000,3667.0000000,509
SPFB.VTBR-3.19,1,20181220,153800,3668.0000000,3668.0000000,3667.0000000,3668.0000000,31
SPFB.VTBR-3.19,1,20181220,153900,3666.0000000,3666.0000000,3666.0000000,3666.0000000,26
SPFB.VTBR-3.19,1,20181220,154000,3666.0000000,3668.0000000,3665.0000000,3666.0000000,166
SPFB.VTBR-3.19,1,20181220,154100,3665.0000000,3667.0000000,3665.0000000,3666.0000000,125
SPFB.VTBR-3.19,1,20181220,154200,3667.0000000,3667.0000000,3666.0000000,3666.0000000,69
SPFB.VTBR-3.19,1,20181220,154300,3665.0000000,3665.0000000,3665.0000000,3665.0000000,10
SPFB.VTBR-3.19,1,20181220,154400,3666.0000000,3666.0000000,3664.0000000,3664.0000000,27
SPFB.VTBR-3.19,1,20181220,154500,3665.0000000,3665.0000000,3662.0000000,3664.0000000,73
SPFB.VTBR-3.19,1,20181220,154600,3665.0000000,3665.0000000,3665.0000000,3665.0000000,47
SPFB.VTBR-3.19,1,20181220,154700,3666.0000000,3666.0000000,3665.0000000,3666.0000000,17
SPFB.VTBR-3.19,1,20181220,154800,3665.0000000,3666.0000000,3665.0000000,3666.0000000,16
SPFB.VTBR-3.19,1,20181220,154900,3665.0000000,3665.0000000,3664.0000000,3665.0000000,55
SPFB.VTBR-3.19,1,20181220,155000,3666.0000000,3667.0000000,3664.0000000,3664.0000000,61
SPFB.VTBR-3.19,1,20181220,155200,3664.0000000,3664.0000000,3663.0000000,3663.0000000,6
SPFB.VTBR-3.19,1,20181220,155300,3663.0000000,3663.0000000,3662.0000000,3662.0000000,10
SPFB.VTBR-3.19,1,20181220,155400,3663.0000000,3664.0000000,3661.0000000,3662.0000000,28
SPFB.VTBR-3.19,1,20181220,155500,3661.0000000,3663.0000000,3661.0000000,3663.0000000,126
SPFB.VTBR-3.19,1,20181220,155600,3663.0000000,3663.0000000,3657.0000000,3659.0000000,561
SPFB.VTBR-3.19,1,20181220,155700,3660.0000000,3661.0000000,3659.0000000,3659.0000000,277
SPFB.VTBR-3.19,1,20181220,155800,3658.0000000,3659.0000000,3656.0000000,3659.0000000,266
SPFB.VTBR-3.19,1,20181220,155900,3659.0000000,3659.0000000,3657.0000000,3658.0000000,63
SPFB.VTBR-3.19,1,20181220,160000,3658.0000000,3658.0000000,3657.0000000,3658.0000000,26
SPFB.VTBR-3.19,1,20181220,160100,3658.0000000,3659.0000000,3658.0000000,3659.0000000,17
SPFB.VTBR-3.19,1,20181220,160200,3658.0000000,3658.0000000,3658.0000000,3658.0000000,15
SPFB.VTBR-3.19,1,20181220,160300,3658.0000000,3658.0000000,3657.0000000,3658.0000000,48
SPFB.VTBR-3.19,1,20181220,160400,3657.0000000,3659.0000000,3657.0000000,3658.0000000,17
SPFB.VTBR-3.19,1,20181220,160500,3657.0000000,3658.0000000,3656.0000000,3656.0000000,89
SPFB.VTBR-3.19,1,20181220,160600,3659.0000000,3659.0000000,3659.0000000,3659.0000000,1
SPFB.VTBR-3.19,1,20181220,160700,3657.0000000,3658.0000000,3657.0000000,3658.0000000,38
SPFB.VTBR-3.19,1,20181220,160800,3658.0000000,3658.0000000,3657.0000000,3657.0000000,19
SPFB.VTBR-3.19,1,20181220,160900,3659.0000000,3659.0000000,3659.0000000,3659.0000000,100
SPFB.VTBR-3.19,1,20181220,161000,3660.0000000,3660.0000000,3659.0000000,3660.0000000,19
SPFB.VTBR-3.19,1,20181220,161100,3660.0000000,3660.0000000,3657.0000000,3658.0000000,65
SPFB.VTBR-3.19,1,20181220,161200,3659.0000000,3659.0000000,3659.0000000,3659.0000000,10
SPFB.VTBR-3.19,1,20181220,161400,3659.0000000,3659.0000000,3659.0000000,3659.0000000,44
SPFB.VTBR-3.19,1,20181220,161500,3659.0000000,3660.0000000,3659.0000000,3659.0000000,66
SPFB.VTBR-3.19,1,20181220,161600,3660.0000000,3660.0000000,3660.0000000,3660.0000000,4
SPFB.VTBR-3.19,1,20181220,161700,3660.0000000,3660.0000000,3660.0000000,3660.0000000,21
SPFB.VTBR-3.19,1,20181220,161800,3660.0000000,3660.0000000,3660.0000000,3660.0000000,72
SPFB.VTBR-3.19,1,20181220,161900,3659.0000000,3659.0000000,3659.0000000,3659.0000000,10
SPFB.VTBR-3.19,1,20181220,162000,3659.0000000,3661.0000000,3659.0000000,3660.0000000,319
SPFB.VTBR-3.19,1,20181220,162200,3660.0000000,3661.0000000,3660.0000000,3661.0000000,7
SPFB.VTBR-3.19,1,20181220,162300,3659.0000000,3659.0000000,3659.0000000,3659.0000000,4
SPFB.VTBR-3.19,1,20181220,162400,3658.0000000,3658.0000000,3658.0000000,3658.0000000,56
SPFB.VTBR-3.19,1,20181220,162500,3658.0000000,3659.0000000,3658.0000000,3659.0000000,25
SPFB.VTBR-3.19,1,20181220,162700,3660.0000000,3660.0000000,3659.0000000,3659.0000000,101
SPFB.VTBR-3.19,1,20181220,162900,3660.0000000,3661.0000000,3659.0000000,3659.0000000,56
SPFB.VTBR-3.19,1,20181220,163000,3659.0000000,3660.0000000,3658.0000000,3660.0000000,48
SPFB.VTBR-3.19,1,20181220,163100,3660.0000000,3660.0000000,3659.0000000,3659.0000000,29
SPFB.VTBR-3.19,1,20181220,163200,3659.0000000,3661.0000000,3659.0000000,3661.0000000,47
SPFB.VTBR-3.19,1,20181220,163300,3660.0000000,3660.0000000,3659.0000000,3659.0000000,19
SPFB.VTBR-3.19,1,20181220,163600,3659.0000000,3659.0000000,3658.0000000,3659.0000000,42
SPFB.VTBR-3.19,1,20181220,163700,3659.0000000,3660.0000000,3659.0000000,3660.0000000,3
SPFB.VTBR-3.19,1,20181220,163800,3659.0000000,3659.0000000,3659.0000000,3659.0000000,20
SPFB.VTBR-3.19,1,20181220,163900,3659.0000000,3659.0000000,3659.0000000,3659.0000000,4
SPFB.VTBR-3.19,1,20181220,164000,3660.0000000,3660.0000000,3659.0000000,3659.0000000,6
SPFB.VTBR-3.19,1,20181220,164100,3660.0000000,3660.0000000,3660.0000000,3660.0000000,192
SPFB.VTBR-3.19,1,20181220,164200,3660.0000000,3660.0000000,3659.0000000,3660.0000000,86
SPFB.VTBR-3.19,1,20181220,164300,3660.0000000,3660.0000000,3659.0000000,3660.0000000,26
SPFB.VTBR-3.19,1,20181220,164400,3660.0000000,3660.0000000,3660.0000000,3660.0000000,1
SPFB.VTBR-3.19,1,20181220,164500,3659.0000000,3659.0000000,3659.0000000,3659.0000000,31
SPFB.VTBR-3.19,1,20181220,164600,3659.0000000,3659.0000000,3659.0000000,3659.0000000,17
SPFB.VTBR-3.19,1,20181220,164700,3659.0000000,3659.0000000,3659.0000000,3659.0000000,10
SPFB.VTBR-3.19,1,20181220,164800,3660.0000000,3661.0000000,3660.0000000,3660.0000000,324
SPFB.VTBR-3.19,1,20181220,164900,3661.0000000,3661.0000000,3660.0000000,3660.0000000,32
SPFB.VTBR-3.19,1,20181220,165000,3660.0000000,3661.0000000,3660.0000000,3661.0000000,19
SPFB.VTBR-3.19,1,20181220,165100,3661.0000000,3661.0000000,3661.0000000,3661.0000000,67
SPFB.VTBR-3.19,1,20181220,165200,3660.0000000,3660.0000000,3660.0000000,3660.0000000,82
SPFB.VTBR-3.19,1,20181220,165400,3661.0000000,3661.0000000,3661.0000000,3661.0000000,2
SPFB.VTBR-3.19,1,20181220,165500,3660.0000000,3661.0000000,3660.0000000,3661.0000000,11
SPFB.VTBR-3.19,1,20181220,165600,3661.0000000,3661.0000000,3661.0000000,3661.0000000,115
SPFB.VTBR-3.19,1,20181220,165700,3661.0000000,3661.0000000,3661.0000000,3661.0000000,33
SPFB.VTBR-3.19,1,20181220,165800,3661.0000000,3662.0000000,3661.0000000,3662.0000000,9
SPFB.VTBR-3.19,1,20181220,165900,3662.0000000,3662.0000000,3661.0000000,3661.0000000,107
SPFB.VTBR-3.19,1,20181220,170000,3662.0000000,3662.0000000,3660.0000000,3660.0000000,13
SPFB.VTBR-3.19,1,20181220,170100,3660.0000000,3660.0000000,3660.0000000,3660.0000000,1
SPFB.VTBR-3.19,1,20181220,170200,3660.0000000,3662.0000000,3660.0000000,3662.0000000,31
SPFB.VTBR-3.19,1,20181220,170300,3662.0000000,3662.0000000,3660.0000000,3661.0000000,1662
SPFB.VTBR-3.19,1,20181220,170400,3662.0000000,3668.0000000,3662.0000000,3667.0000000,515
SPFB.VTBR-3.19,1,20181220,170500,3667.0000000,3667.0000000,3665.0000000,3665.0000000,143
SPFB.VTBR-3.19,1,20181220,170600,3665.0000000,3665.0000000,3664.0000000,3664.0000000,63
SPFB.VTBR-3.19,1,20181220,170700,3666.0000000,3666.0000000,3663.0000000,3664.0000000,61
SPFB.VTBR-3.19,1,20181220,170800,3664.0000000,3664.0000000,3664.0000000,3664.0000000,26
SPFB.VTBR-3.19,1,20181220,170900,3663.0000000,3665.0000000,3663.0000000,3664.0000000,68
SPFB.VTBR-3.19,1,20181220,171000,3664.0000000,3665.0000000,3664.0000000,3665.0000000,63
SPFB.VTBR-3.19,1,20181220,171100,3666.0000000,3666.0000000,3666.0000000,3666.0000000,14
SPFB.VTBR-3.19,1,20181220,171200,3666.0000000,3666.0000000,3664.0000000,3664.0000000,32
SPFB.VTBR-3.19,1,20181220,171300,3664.0000000,3666.0000000,3663.0000000,3665.0000000,124
SPFB.VTBR-3.19,1,20181220,171400,3666.0000000,3666.0000000,3666.0000000,3666.0000000,1
SPFB.VTBR-3.19,1,20181220,171500,3666.0000000,3666.0000000,3664.0000000,3664.0000000,62
SPFB.VTBR-3.19,1,20181220,171600,3663.0000000,3663.0000000,3662.0000000,3662.0000000,126
SPFB.VTBR-3.19,1,20181220,171700,3662.0000000,3663.0000000,3662.0000000,3663.0000000,138
SPFB.VTBR-3.19,1,20181220,171800,3663.0000000,3664.0000000,3662.0000000,3662.0000000,175
SPFB.VTBR-3.19,1,20181220,171900,3663.0000000,3663.0000000,3662.0000000,3663.0000000,253
SPFB.VTBR-3.19,1,20181220,172000,3663.0000000,3663.0000000,3662.0000000,3662.0000000,229
SPFB.VTBR-3.19,1,20181220,172100,3663.0000000,3663.0000000,3663.0000000,3663.0000000,5
SPFB.VTBR-3.19,1,20181220,172200,3663.0000000,3664.0000000,3663.0000000,3664.0000000,50
SPFB.VTBR-3.19,1,20181220,172300,3664.0000000,3665.0000000,3664.0000000,3664.0000000,210
SPFB.VTBR-3.19,1,20181220,172400,3664.0000000,3664.0000000,3663.0000000,3664.0000000,91
SPFB.VTBR-3.19,1,20181220,172500,3664.0000000,3665.0000000,3664.0000000,3665.0000000,95
SPFB.VTBR-3.19,1,20181220,172600,3665.0000000,3665.0000000,3665.0000000,3665.0000000,16
SPFB.VTBR-3.19,1,20181220,172700,3664.0000000,3665.0000000,3664.0000000,3665.0000000,58
SPFB.VTBR-3.19,1,20181220,172800,3664.0000000,3664.0000000,3663.0000000,3663.0000000,26
SPFB.VTBR-3.19,1,20181220,172900,3664.0000000,3665.0000000,3664.0000000,3664.0000000,40
SPFB.VTBR-3.19,1,20181220,173000,3664.0000000,3665.0000000,3663.0000000,3665.0000000,35
SPFB.VTBR-3.19,1,20181220,173100,3665.0000000,3665.0000000,3665.0000000,3665.0000000,2
SPFB.VTBR-3.19,1,20181220,173200,3665.0000000,3666.0000000,3665.0000000,3666.0000000,27
SPFB.VTBR-3.19,1,20181220,173300,3667.0000000,3668.0000000,3667.0000000,3668.0000000,46
SPFB.VTBR-3.19,1,20181220,173400,3665.0000000,3667.0000000,3665.0000000,3667.0000000,99
SPFB.VTBR-3.19,1,20181220,173500,3667.0000000,3667.0000000,3665.0000000,3665.0000000,91
SPFB.VTBR-3.19,1,20181220,173600,3666.0000000,3668.0000000,3665.0000000,3665.0000000,71
SPFB.VTBR-3.19,1,20181220,173700,3665.0000000,3666.0000000,3665.0000000,3666.0000000,18
SPFB.VTBR-3.19,1,20181220,173900,3666.0000000,3667.0000000,3665.0000000,3666.0000000,70
SPFB.VTBR-3.19,1,20181220,174000,3665.0000000,3667.0000000,3665.0000000,3666.0000000,53
SPFB.VTBR-3.19,1,20181220,174100,3667.0000000,3667.0000000,3665.0000000,3665.0000000,15
SPFB.VTBR-3.19,1,20181220,174200,3667.0000000,3667.0000000,3666.0000000,3666.0000000,58
SPFB.VTBR-3.19,1,20181220,174300,3667.0000000,3667.0000000,3664.0000000,3665.0000000,54
SPFB.VTBR-3.19,1,20181220,174400,3666.0000000,3667.0000000,3665.0000000,3667.0000000,14
SPFB.VTBR-3.19,1,20181220,174500,3666.0000000,3666.0000000,3666.0000000,3666.0000000,30
SPFB.VTBR-3.19,1,20181220,174600,3667.0000000,3668.0000000,3666.0000000,3668.0000000,162
SPFB.VTBR-3.19,1,20181220,174700,3668.0000000,3668.0000000,3665.0000000,3665.0000000,138
SPFB.VTBR-3.19,1,20181220,174800,3665.0000000,3666.0000000,3664.0000000,3665.0000000,140
SPFB.VTBR-3.19,1,20181220,174900,3665.0000000,3669.0000000,3665.0000000,3667.0000000,595
SPFB.VTBR-3.19,1,20181220,175000,3666.0000000,3667.0000000,3666.0000000,3667.0000000,108
SPFB.VTBR-3.19,1,20181220,175100,3667.0000000,3668.0000000,3667.0000000,3667.0000000,50
SPFB.VTBR-3.19,1,20181220,175200,3668.0000000,3668.0000000,3667.0000000,3668.0000000,157
SPFB.VTBR-3.19,1,20181220,175300,3668.0000000,3668.0000000,3666.0000000,3666.0000000,90
SPFB.VTBR-3.19,1,20181220,175400,3666.0000000,3667.0000000,3666.0000000,3667.0000000,254
SPFB.VTBR-3.19,1,20181220,175500,3667.0000000,3667.0000000,3667.0000000,3667.0000000,59
SPFB.VTBR-3.19,1,20181220,175600,3667.0000000,3669.0000000,3667.0000000,3669.0000000,390
SPFB.VTBR-3.19,1,20181220,175700,3669.0000000,3669.0000000,3667.0000000,3668.0000000,235
SPFB.VTBR-3.19,1,20181220,175800,3667.0000000,3669.0000000,3667.0000000,3669.0000000,431
SPFB.VTBR-3.19,1,20181220,175900,3669.0000000,3670.0000000,3669.0000000,3669.0000000,714
SPFB.VTBR-3.19,1,20181220,180000,3668.0000000,3669.0000000,3668.0000000,3668.0000000,170
SPFB.VTBR-3.19,1,20181220,180100,3668.0000000,3671.0000000,3667.0000000,3670.0000000,539
SPFB.VTBR-3.19,1,20181220,180200,3670.0000000,3670.0000000,3669.0000000,3670.0000000,132
SPFB.VTBR-3.19,1,20181220,180300,3670.0000000,3670.0000000,3669.0000000,3669.0000000,102
SPFB.VTBR-3.19,1,20181220,180400,3668.0000000,3669.0000000,3668.0000000,3669.0000000,45
SPFB.VTBR-3.19,1,20181220,180500,3669.0000000,3671.0000000,3669.0000000,3670.0000000,170
SPFB.VTBR-3.19,1,20181220,180600,3671.0000000,3671.0000000,3669.0000000,3670.0000000,79
SPFB.VTBR-3.19,1,20181220,180700,3670.0000000,3671.0000000,3670.0000000,3671.0000000,70
SPFB.VTBR-3.19,1,20181220,180800,3671.0000000,3672.0000000,3670.0000000,3671.0000000,156
SPFB.VTBR-3.19,1,20181220,180900,3671.0000000,3671.0000000,3670.0000000,3670.0000000,46
SPFB.VTBR-3.19,1,20181220,181000,3670.0000000,3671.0000000,3670.0000000,3670.0000000,77
SPFB.VTBR-3.19,1,20181220,181200,3669.0000000,3670.0000000,3669.0000000,3670.0000000,5
SPFB.VTBR-3.19,1,20181220,181300,3670.0000000,3671.0000000,3668.0000000,3668.0000000,171
SPFB.VTBR-3.19,1,20181220,181400,3668.0000000,3669.0000000,3668.0000000,3668.0000000,39
SPFB.VTBR-3.19,1,20181220,181500,3669.0000000,3670.0000000,3669.0000000,3670.0000000,13
SPFB.VTBR-3.19,1,20181220,181600,3667.0000000,3668.0000000,3667.0000000,3667.0000000,90
SPFB.VTBR-3.19,1,20181220,181700,3667.0000000,3667.0000000,3667.0000000,3667.0000000,11
SPFB.VTBR-3.19,1,20181220,181800,3667.0000000,3668.0000000,3666.0000000,3666.0000000,22
SPFB.VTBR-3.19,1,20181220,181900,3668.0000000,3668.0000000,3666.0000000,3667.0000000,91
SPFB.VTBR-3.19,1,20181220,182000,3666.0000000,3667.0000000,3666.0000000,3666.0000000,36
SPFB.VTBR-3.19,1,20181220,182100,3666.0000000,3666.0000000,3666.0000000,3666.0000000,6
SPFB.VTBR-3.19,1,20181220,182200,3667.0000000,3667.0000000,3666.0000000,3666.0000000,27
SPFB.VTBR-3.19,1,20181220,182300,3666.0000000,3666.0000000,3665.0000000,3665.0000000,41
SPFB.VTBR-3.19,1,20181220,182400,3666.0000000,3666.0000000,3666.0000000,3666.0000000,14
SPFB.VTBR-3.19,1,20181220,182500,3665.0000000,3669.0000000,3665.0000000,3669.0000000,245
SPFB.VTBR-3.19,1,20181220,182600,3667.0000000,3667.0000000,3666.0000000,3666.0000000,12
SPFB.VTBR-3.19,1,20181220,182700,3665.0000000,3667.0000000,3664.0000000,3666.0000000,127
SPFB.VTBR-3.19,1,20181220,182800,3665.0000000,3667.0000000,3662.0000000,3664.0000000,222
SPFB.VTBR-3.19,1,20181220,182900,3663.0000000,3664.0000000,3663.0000000,3664.0000000,117
SPFB.VTBR-3.19,1,20181220,183000,3663.0000000,3664.0000000,3663.0000000,3664.0000000,81
SPFB.VTBR-3.19,1,20181220,183100,3664.0000000,3666.0000000,3664.0000000,3665.0000000,58
SPFB.VTBR-3.19,1,20181220,183200,3666.0000000,3666.0000000,3663.0000000,3663.0000000,20
SPFB.VTBR-3.19,1,20181220,183300,3663.0000000,3664.0000000,3663.0000000,3664.0000000,28
SPFB.VTBR-3.19,1,20181220,183400,3663.0000000,3664.0000000,3663.0000000,3663.0000000,111
SPFB.VTBR-3.19,1,20181220,183500,3663.0000000,3664.0000000,3662.0000000,3662.0000000,81
SPFB.VTBR-3.19,1,20181220,183600,3662.0000000,3663.0000000,3662.0000000,3663.0000000,368
SPFB.VTBR-3.19,1,20181220,183700,3663.0000000,3663.0000000,3662.0000000,3663.0000000,25
SPFB.VTBR-3.19,1,20181220,183800,3663.0000000,3664.0000000,3663.0000000,3664.0000000,78
SPFB.VTBR-3.19,1,20181220,183900,3664.0000000,3666.0000000,3662.0000000,3662.0000000,1206
SPFB.VTBR-3.19,1,20181220,184000,3665.0000000,3665.0000000,3665.0000000,3665.0000000,58
SPFB.VTBR-3.19,1,20181220,184100,3665.0000000,3665.0000000,3662.0000000,3662.0000000,127
SPFB.VTBR-3.19,1,20181220,184200,3664.0000000,3664.0000000,3664.0000000,3664.0000000,7
SPFB.VTBR-3.19,1,20181220,184300,3663.0000000,3664.0000000,3663.0000000,3664.0000000,14
SPFB.VTBR-3.19,1,20181220,184400,3665.0000000,3665.0000000,3663.0000000,3665.0000000,137
